{
  "identifiers": [
    {
      "name": "and",
      "alias": "\u2227",
      "notation": "infix"
    },
    {
      "name": "+",
      "alias": "+",
      "notation": "infix"
    },
    {
      "name": "*",
      "alias": "\u00B7",
      "notation": "infix"
    },
    {
      "name": "=",
      "alias": "=",
      "notation": "infix"
    },
    {
      "name": "distinct",
      "alias": "\u2260",
      "notation": "infix",
      "useParentheses": false
    },
    {
      "name": "=>",
      "alias": "\u21D2",
      "notation": "infix"
    },
    {
      "name": "not",
      "alias": "\u00AC",
      "notation": "prefix",
      "useParentheses": false
    },
    {
      "name": "/",
      "alias": "/",
      "notation": "infix"
    },
    {
      "name": "-",
      "alias": "-",
      "notation": "infix"
    },
    {
      "name": "or",
      "alias": "\u2228",
      "notation": "infix"
    },
    {
      "name": ">",
      "alias": ">",
      "notation": "infix"
    },
    {
      "name": "<",
      "alias": "<",
      "notation": "infix"
    },
    {
      "name": ">=",
      "alias": "\u2265",
      "notation": "infix"
    },
    {
      "name": "<=",
      "alias": "\u2264",
      "notation": "infix"
    },
    {
      "name": "Int",
      "alias": "\u2124"
    },
    {
      "name": "Real",
      "alias": "\u211D"
    }
  ]
}
